Warning alert about about the lack of care and food
…
select(gapminder, country, life_expectancy = lifeExp, gdp_per_capita = gdpPercap)

# A tibble: 1,704 × 3
   country     life_expectancy gdp_per_capita
   <fct>                 <dbl>          <dbl>
 1 Afghanistan            28.8           779.
 2 Afghanistan            30.3           821.
 3 Afghanistan            32.0           853.
 4 Afghanistan            34.0           836.
 5 Afghanistan            36.1           740.
 6 Afghanistan            38.4           786.
 7 Afghanistan            39.9           978.
 8 Afghanistan            40.8           852.
 9 Afghanistan            41.7           649.
10 Afghanistan            41.8           635.
# ℹ 1,694 more rows

new_data <- select(gapminder, -pop, -year)
new_data

# A tibble: 1,704 × 4
   country     continent lifeExp gdpPercap
   <fct>       <fct>       <dbl>     <dbl>
 1 Afghanistan Asia         28.8      779.
 2 Afghanistan Asia         30.3      821.
 3 Afghanistan Asia         32.0      853.
 4 Afghanistan Asia         34.0      836.
 5 Afghanistan Asia         36.1      740.
 6 Afghanistan Asia         38.4      786.
 7 Afghanistan Asia         39.9      978.
 8 Afghanistan Asia         40.8      852.
 9 Afghanistan Asia         41.7      649.
10 Afghanistan Asia         41.8      635.
# ℹ 1,694 more rows
…
